FICHE CLIMATOLOGIQUE;
;
Statistiques  1981-2010  et  records;
BEZALLES (77)      Indicatif : 77033001, alt : 163m, lat : 48°40'42"N, lon : 03°14'30"E;
Edité le : 06/04/2020 dans l'état de la base;


            ;     Janv.;     Févr.;      Mars;     Avril;       Mai;      Juin;     Juil.;      Août;     Sept.;      Oct.;      Nov.;      Déc.;     Année;


La température la plus élevée (°C);
(Records établis sur la période du 01-06-1978 au 02-04-2020);
            ;      15.1;      19.9;      24.2;      29.6;        32;      37.4;      41.6;        40;      32.4;      28.7;      21.3;      16.7;      41.6;
Date        ;   05-1999;   27-2019;   29-1989;   20-2018;   28-2017;   27-2011;   25-2019;   12-2003;   05-2013;   02-2011;   07-2015;   07-2000;      2019;


Température maximale (Moyenne en °C);
            ;       5.7;       7.1;      11.2;      14.7;      18.9;        22;      25.1;        25;      20.8;      15.7;       9.6;       6.2;      15.2;


Température moyenne (Moyenne en °C);
            ;       3.3;         4;       7.2;       9.8;      13.8;      16.7;      19.2;        19;      15.6;      11.7;       6.8;       3.9;        11;


Température minimale (Moyenne en °C);
            ;       0.9;       0.9;       3.2;       4.9;       8.7;      11.4;      13.3;      13.1;      10.4;       7.8;       3.9;       1.6;       6.7;


La température la plus basse (°C);
(Records établis sur la période du 01-06-1978 au 02-04-2020);
            ;     -20.7;     -13.6;      -9.9;      -3.7;      -1.3;       1.5;       4.8;       3.7;       1.3;      -3.5;      -8.6;     -13.3;     -20.7;
Date        ;   17-1985;   04-2012;   01-2005;   14-2019;   06-2019;   01-2006;   04-1984;   29-1993;   25-2002;   29-1985;   24-1998;   31-1985;      1985;


Nombre moyen de jours avec;
Tx >=  30°C ;         .;         .;         .;         .;       0.1;       1.2;       4.5;       4.0;       0.4;         .;         .;         .;      10.1;
Tx >=  25°C ;         .;         .;         .;       0.6;       3.3;       8.1;      15.6;      14.5;       4.5;       0.5;         .;         .;      47.0;
Tx <=   0°C ;       3.1;       2.0;       0.1;         .;         .;         .;         .;         .;         .;         .;       0.4;       2.3;       7.9;
Tn <=   0°C ;      12.7;      11.9;       7.0;       2.7;       0.1;         .;         .;         .;         .;       1.0;       5.7;      11.8;      53.0;
Tn <=  -5°C ;       3.0;       2.4;       0.2;         .;         .;         .;         .;         .;         .;         .;       0.5;       1.6;       7.6;
Tn <= -10°C ;       0.7;       0.2;         .;         .;         .;         .;         .;         .;         .;         .;         .;       0.2;       1.1;
(Tn=Température minimale. Tx=Température maximale);


Précipitations : Hauteur quotidienne maximale (mm);
(Records établis sur la période du 01-06-1978 au 02-04-2020);
            ;      26.6;      39.7;      27.5;      37.7;      56.7;      35.8;        47;      57.8;      65.6;      47.7;      28.6;      38.2;      65.6;
Date        ;   21-1995;   25-1997;   30-1986;   14-1999;   29-2016;   30-1988;   19-2011;   15-2010;   13-2017;   05-1987;   02-2002;   24-2013;      2017;


Précipitations : Hauteur moyenne mensuelle (mm);
            ;      65.6;      56.4;      60.4;        58;      63.2;      54.9;      57.9;      54.9;      60.8;      75.4;      62.7;        77;     747.2;


Nombre moyen de jours avec;
Rr >=  1 mm ;      11.8;      10.2;      11.1;       9.5;      10.9;       9.0;       8.6;       7.4;       9.1;      11.1;      11.0;      12.5;     122.2;
Rr >=  5 mm ;       4.5;       3.8;       4.7;       4.4;       4.3;       3.8;       3.5;       3.5;       3.8;       5.3;       4.5;       5.4;      51.5;
Rr >= 10 mm ;       1.8;       1.3;       1.4;       1.5;       1.6;       1.4;       1.8;       1.4;       2.1;       2.2;       1.4;       2.1;      19.9;
Rr : Hauteur quotidienne de précipitations;


Degrés Jours Unifiés (Moyenne en °C);
            ;     455.9;     396.2;     335.7;     245.8;     136.6;      64.6;      22.7;      23.2;      83.8;     194.9;     336.9;     436.5;    2732.8;


Rayonnement global (Moyenne en J/cm²);
Données non disponibles;



Durée d'insolation (Moyenne en heures);
Données non disponibles;



Nombre moyen de jours avec fraction d'insolation;
Données non disponibles;



Evapotranspiration Potentielle (ETP Penman moyenne en mm);
Données non disponibles;



Rafale maximale de vent (m/s);
Données non disponibles;



Vitesse du vent moyenné sur 10 mn (Moyenne en m/s);
Données non disponibles;



Nombre moyen de jours avec rafales;
Données non disponibles;



Nombre moyen de jours avec brouillard / orage / grêle / neige;
Données non disponibles;


- : donnée manquante;  . : donnée égale à 0;


Ces statistiques sont établies sur la période 1981-2010.;
