FICHE CLIMATOLOGIQUE;
;
Statistiques  1981-2010  et  records;
ROUVROY-LES-MERLES (60)      Indicatif : 60555002, alt : 94m, lat : 49°39'00"N, lon : 02°22'12"E;
Edité le : 06/04/2020 dans l'état de la base;


            ;     Janv.;     Févr.;      Mars;     Avril;       Mai;      Juin;     Juil.;      Août;     Sept.;      Oct.;      Nov.;      Déc.;     Année;


La température la plus élevée (°C);
(Records établis sur la période du 01-04-1989 au 02-04-2020);
            ;      15.2;        20;      22.2;      27.1;      30.8;      35.9;      41.5;      39.7;      31.5;      29.2;      20.1;        17;      41.5;
Date        ;   27-2003;   24-1990;   16-2005;   19-2018;   27-2005;   27-2011;   25-2019;   06-2003;   05-2013;   01-2011;   01-2014;   07-2000;      2019;


Température maximale (Moyenne en °C);
Statistiques établies sur la période 1989-2010;
            ;       6.4;       7.8;      11.5;      14.5;      18.7;      21.6;      24.4;      24.5;      20.4;      15.6;        10;       6.2;      15.2;


Température moyenne (Moyenne en °C);
Statistiques établies sur la période 1989-2010;
            ;       3.8;       4.5;         7;       9.2;        13;      15.6;      18.1;      18.2;      14.9;      11.3;       6.9;       3.7;      10.5;


Température minimale (Moyenne en °C);
Statistiques établies sur la période 1989-2010;
            ;       1.1;       1.2;       2.6;       3.8;       7.3;       9.6;      11.8;      11.8;       9.4;       7.1;       3.7;       1.1;       5.9;


La température la plus basse (°C);
(Records établis sur la période du 01-04-1989 au 02-04-2020);
            ;     -18.6;     -12.9;     -11.5;      -5.4;        -2;        -2;       2.3;       2.1;      -1.3;      -6.2;     -10.8;     -17.2;     -18.6;
Date        ;   07-2009;   07-2012;   13-2013;   10-1990;   07-1997;   05-1991;   04-1990;   08-1990;   30-2018;   28-2003;   24-1998;   18-2010;      2009;


Nombre moyen de jours avec;
Statistiques établies sur la période 1989-2010;
Tx >=  30°C ;         .;         .;         .;         .;       0.1;       0.9;       3.5;       3.7;       0.3;         .;         .;         .;       8.4;
Tx >=  25°C ;         .;         .;         .;       0.1;       2.9;       5.9;      13.4;      12.2;       3.6;       0.2;         .;         .;      38.2;
Tx <=   0°C ;       2.1;       1.1;         .;         .;         .;         .;         .;         .;         .;         .;       0.4;       2.4;       6.0;
Tn <=   0°C ;      12.4;      11.5;       9.4;       5.7;       0.9;       0.1;         .;         .;       0.1;       2.3;       6.4;      13.2;      62.1;
Tn <=  -5°C ;       3.6;       2.5;       0.5;       0.1;         .;         .;         .;         .;         .;       0.1;       0.9;       3.0;      10.6;
Tn <= -10°C ;       0.8;       0.3;       0.1;         .;         .;         .;         .;         .;         .;         .;       0.1;       0.3;       1.5;
(Tn=Température minimale. Tx=Température maximale);


Précipitations : Hauteur quotidienne maximale (mm);
(Records établis sur la période du 01-04-1989 au 02-04-2020);
            ;      29.5;        28;      26.8;      22.8;      52.3;      59.6;        60;        31;        45;      44.9;      32.5;      30.2;        60;
Date        ;   01-2003;   14-1990;   20-2001;   27-2000;   30-2016;   20-1992;   25-2001;   03-2008;   03-2011;   01-2007;   03-2002;   02-2000;      2001;


Précipitations : Hauteur moyenne mensuelle (mm);
Statistiques établies sur la période 1989-2010;
            ;      52.5;      47.6;      47.8;      50.3;        52;      55.3;      58.8;      57.6;      50.1;        59;        58;      67.1;     656.1;


Nombre moyen de jours avec;
Statistiques établies sur la période 1989-2010;
Rr >=  1 mm ;      10.3;      10.0;      10.2;      10.0;       9.1;       9.1;       8.7;       8.8;       8.2;       9.9;      11.9;      12.3;     118.3;
Rr >=  5 mm ;       3.8;       3.4;       3.1;       3.8;       3.6;       3.4;       4.0;       3.8;       3.5;       3.7;       4.2;       4.8;      45.2;
Rr >= 10 mm ;       1.2;       0.9;       0.9;       1.1;       1.3;       1.6;       1.7;       1.8;       1.6;       1.4;       1.1;       1.7;      16.3;
Rr : Hauteur quotidienne de précipitations;


Degrés Jours Unifiés (Moyenne en °C);
Statistiques établies sur la période 1989-2010;
            ;     441.1;     381.6;     339.8;     264.9;     156.9;      82.7;      34.9;        33;      98.9;     206.8;     333.8;     444.4;    2818.8;


Rayonnement global (Moyenne en J/cm²);
Données non disponibles;



Durée d'insolation (Moyenne en heures);
Données non disponibles;



Nombre moyen de jours avec fraction d'insolation;
Données non disponibles;



Evapotranspiration Potentielle (ETP Penman moyenne en mm);
Données non disponibles;



Rafale maximale de vent (m/s);
(Records établis sur la période du 25-04-1989 au 02-04-2020);
            ;        38;        35;      29.9;        25;        28;      37.3;      26.3;        25;        25;        30;      25.5;      34.6;38.0      ;
Date        ;   22-1995;   28-1990;   10-2019;   07-1990;   05-2003;   28-2012;   27-2014;   24-1997;   09-2002;   27-2002;   11-2010;   17-2004;      1995;


Vitesse du vent moyenné sur 10 mn (Moyenne en m/s);
Statistiques établies sur la période 1989-2010;
            ;       3.8;       3.7;       3.6;       3.2;         3;       2.7;       2.8;       2.7;       2.8;       3.1;       3.1;       3.5;       3.2;


Nombre moyen de jours avec rafales;
Données non disponibles;



Nombre moyen de jours avec brouillard / orage / grêle / neige;
Données non disponibles;


- : donnée manquante;  . : donnée égale à 0;


Ces statistiques sont établies sur la période 1981-2010 sauf pour les paramètres suivants :  précipitations (1989-2010), température (1989-2010), vent (1989-2010).;

