FICHE CLIMATOLOGIQUE;
;
Statistiques  1981-2010  et  records;
BAGATELLE (75)      Indicatif : 75116002, alt : 36m, lat : 48°52'06"N, lon : 02°14'42"E;
Edité le : 06/04/2020 dans l'état de la base;


            ;     Janv.;     Févr.;      Mars;     Avril;       Mai;      Juin;     Juil.;      Août;     Sept.;      Oct.;      Nov.;      Déc.;     Année;


La température la plus élevée (°C);
(Records établis sur la période du 01-01-1988 au 30-12-2014);
            ;      16.5;        22;        26;        31;        33;        38;      38.5;      40.5;      34.5;        33;      23.5;      17.7;      40.5;
Date        ;   05-1999;   24-1990;   29-1989;   25-2007;   27-2005;   27-2011;   19-2006;   12-2003;   05-2013;   01-2011;   01-2014;   16-1989;      2003;


Température maximale (Moyenne en °C);
Statistiques établies sur la période 1988-2010;
            ;       8.1;       9.6;      13.5;      16.8;      21.3;      24.1;      26.4;      26.4;      22.1;      17.1;      11.2;       7.8;      17.1;


Température moyenne (Moyenne en °C);
Statistiques établies sur la période 1988-2010;
            ;       5.4;       6.1;       9.1;      11.6;      15.8;      18.5;      20.6;      20.6;      16.8;      12.9;       8.1;       5.3;      12.6;


Température minimale (Moyenne en °C);
Statistiques établies sur la période 1988-2010;
            ;       2.7;       2.6;       4.7;       6.3;      10.3;      12.9;      14.9;      14.7;      11.5;       8.7;         5;       2.8;       8.1;


La température la plus basse (°C);
(Records établis sur la période du 01-01-1988 au 30-12-2014);
            ;       -12;       -13;        -8;        -2;       1.5;         4;         7;       6.5;         4;      -2.5;        -8;       -10;       -13;
Date        ;   07-2009;   07-1991;   01-2005;   13-1998;   08-1997;   04-1991;   09-2007;   22-2014;   30-2012;   29-1997;   24-1998;   29-1996;      1991;


Nombre moyen de jours avec;
Statistiques établies sur la période 1988-2010;
Tx >=  30°C ;         .;         .;         .;       0.1;       1.1;       3.7;       7.3;       7.1;       1.1;         .;         .;         .;      20.4;
Tx >=  25°C ;         .;         .;       0.0;       1.7;       7.9;      13.0;      19.3;      19.0;       7.0;       1.0;         .;         .;      68.9;
Tx <=   0°C ;       1.2;       0.5;         .;         .;         .;         .;         .;         .;         .;         .;       0.1;       0.6;       2.3;
Tn <=   0°C ;       8.8;       8.0;       3.3;       0.9;         .;         .;         .;         .;         .;       0.7;       4.0;       9.5;      35.2;
Tn <=  -5°C ;       1.4;       0.5;       0.0;         .;         .;         .;         .;         .;         .;         .;       0.4;       1.0;       3.3;
Tn <= -10°C ;       0.1;       0.1;         .;         .;         .;         .;         .;         .;         .;         .;         .;       0.0;       0.2;
(Tn=Température minimale. Tx=Température maximale);


Précipitations : Hauteur quotidienne maximale (mm);
(Records établis sur la période du 01-07-1926 au 02-04-2020);
            ;        30;      30.6;        29;        28;        67;      82.7;        92;        80;        36;        44;      34.7;        36;        92;
Date        ;   11-1993;   02-1941;   18-2002;   25-1993;   31-1992;   24-1960;   21-1982;   05-1968;   30-1990;   24-1966;   07-1944;   10-2017;      1982;


Précipitations : Hauteur moyenne mensuelle (mm);
            ;      52.9;      43.3;        48;      49.4;      64.1;      53.2;      58.9;        51;      48.1;      60.8;      51.9;      58.4;       640;


Nombre moyen de jours avec;
Rr >=  1 mm ;      10.6;       9.3;      10.6;       9.5;      10.0;       8.7;       8.2;       7.3;       7.8;      10.0;      10.5;      11.6;     114.1;
Rr >=  5 mm ;       3.8;       2.8;       3.4;       3.6;       4.6;       3.4;       3.6;       2.9;       3.4;       4.0;       3.5;       4.5;      43.5;
Rr >= 10 mm ;       1.4;       0.9;       0.6;       1.3;       1.8;       1.5;       1.6;       1.4;       1.4;       1.6;       1.2;       1.3;      16.0;
Rr : Hauteur quotidienne de précipitations;


Degrés Jours Unifiés (Moyenne en °C);
Statistiques établies sur la période 1988-2010;
            ;     392.9;     336.5;     276.4;     194.4;      86.9;      32.2;       9.2;       8.3;      53.7;     160.1;     297.3;     395.1;    2243.0;


Rayonnement global (Moyenne en J/cm²);
Données non disponibles;



Durée d'insolation (Moyenne en heures);
Données non disponibles;



Nombre moyen de jours avec fraction d'insolation;
Données non disponibles;



Evapotranspiration Potentielle (ETP Penman moyenne en mm);
Données non disponibles;



Rafale maximale de vent (m/s);
Données non disponibles;



Vitesse du vent moyenné sur 10 mn (Moyenne en m/s);
Données non disponibles;



Nombre moyen de jours avec rafales;
Données non disponibles;



Nombre moyen de jours avec brouillard / orage / grêle / neige;
Données non disponibles;


- : donnée manquante;  . : donnée égale à 0;


Ces statistiques sont établies sur la période 1981-2010 sauf pour les paramètres suivants :  température (1988-2010).;

