FICHE CLIMATOLOGIQUE;
;
Statistiques  1981-2010  et  records;
HERBLAY (95)      Indicatif : 95306001, alt : 75m, lat : 49°00'12"N, lon : 02°09'36"E;
Edité le : 06/04/2020 dans l'état de la base;


            ;     Janv.;     Févr.;      Mars;     Avril;       Mai;      Juin;     Juil.;      Août;     Sept.;      Oct.;      Nov.;      Déc.;     Année;


La température la plus élevée (°C);
(Records établis sur la période du 01-01-1989 au 26-10-2014);
            ;        16;      20.5;      24.6;        27;      32.5;      36.8;      37.2;      40.1;      32.5;      29.4;        19;      17.7;      40.1;
Date        ;   27-2003;   24-1990;   29-1989;   25-2007;   27-2005;   27-2011;   19-2006;   06-2003;   05-2013;   01-2011;   03-1993;   07-2000;      2003;


Température maximale (Moyenne en °C);
Statistiques établies sur la période 1989-2010;
            ;       7.2;       8.8;      12.8;      15.4;      19.8;      22.7;      25.1;      25.1;      21.2;      16.2;      10.7;         7;        16;


Température moyenne (Moyenne en °C);
Statistiques établies sur la période 1989-2010;
            ;       4.6;       5.5;       8.6;      10.6;      14.6;      17.4;      19.7;      19.6;      16.1;      12.4;       7.7;       4.6;      11.8;


Température minimale (Moyenne en °C);
Statistiques établies sur la période 1989-2010;
            ;       2.1;       2.2;       4.3;       5.8;       9.5;      12.2;      14.2;      14.1;      11.1;       8.5;       4.7;       2.1;       7.6;


La température la plus basse (°C);
(Records établis sur la période du 01-01-1989 au 26-10-2014);
            ;     -13.5;     -12.8;      -9.7;        -3;       0.3;       2.1;       5.9;       5.2;       2.3;      -3.5;      -9.9;     -11.6;     -13.5;
Date        ;   07-2009;   07-1991;   13-2013;   10-1990;   07-1997;   05-1991;   04-1990;   26-1993;   30-1995;   28-2003;   24-1998;   29-1996;      2009;


Nombre moyen de jours avec;
Statistiques établies sur la période 1989-2010;
Tx >=  30°C ;         .;         .;         .;         .;       0.2;       1.9;       4.9;       4.3;       0.5;         .;         .;         .;      11.8;
Tx >=  25°C ;         .;         .;       0.5;       1.0;       4.4;       9.1;      15.5;      14.4;       4.2;       0.2;         .;         .;      49.2;
Tx <=   0°C ;       1.7;       0.5;         .;         .;         .;         .;         .;         .;         .;         .;       0.2;       1.2;       3.6;
Tn <=   0°C ;      10.1;       9.2;       5.0;       1.9;         .;         .;         .;         .;         .;       1.2;       4.6;      10.9;      42.8;
Tn <=  -5°C ;       2.4;       1.3;       0.1;         .;         .;         .;         .;         .;         .;         .;       0.7;       1.8;       6.1;
Tn <= -10°C ;       0.3;       0.1;         .;         .;         .;         .;         .;         .;         .;         .;         .;       0.1;       0.5;
(Tn=Température minimale. Tx=Température maximale);


Précipitations : Hauteur quotidienne maximale (mm);
(Records établis sur la période du 01-01-1989 au 26-10-2014);
            ;      38.8;        25;        37;        31;      40.9;      43.2;        65;        38;      35.4;      52.6;      24.2;      27.8;        65;
Date        ;   11-1993;   13-2002;   07-1989;   29-2007;   25-2007;   11-2010;   06-2001;   05-1997;   19-1999;   02-2007;   03-2011;   18-1999;      2001;


Précipitations : Hauteur moyenne mensuelle (mm);
Statistiques établies sur la période 1989-2010;
            ;      45.3;      44.2;      45.2;      50.7;      53.2;      51.8;      54.6;      51.7;      42.8;      61.3;      51.4;      60.3;     612.5;


Nombre moyen de jours avec;
Statistiques établies sur la période 1989-2010;
Rr >=  1 mm ;       9.0;       9.3;       9.9;      10.0;       9.0;       8.6;       7.9;       8.1;       8.1;       9.6;      10.8;      11.1;     111.0;
Rr >=  5 mm ;       3.0;       3.0;       3.1;       3.5;       3.4;       3.6;       3.9;       3.2;       2.9;       4.1;       3.4;       4.4;      41.4;
Rr >= 10 mm ;       1.0;       0.8;       0.7;       1.1;       1.4;       1.5;       1.6;       1.5;       1.1;       1.4;       1.1;       1.5;      14.5;
Rr : Hauteur quotidienne de précipitations;


Degrés Jours Unifiés (Moyenne en °C);
Statistiques établies sur la période 1989-2010;
            ;       416;       359;     293.6;     221.9;     115.1;      48.3;      16.2;      14.9;      70.1;       178;     308.6;     415.9;    2457.6;


Rayonnement global (Moyenne en J/cm²);
Données non disponibles;



Durée d'insolation (Moyenne en heures);
Données non disponibles;



Nombre moyen de jours avec fraction d'insolation;
Données non disponibles;



Evapotranspiration Potentielle (ETP Penman moyenne en mm);
Données non disponibles;



Rafale maximale de vent (m/s);
(Records établis sur la période du 01-01-1989 au 03-08-2014);
            ;        28;      26.9;        25;        23;      28.2;        27;        20;        21;      21.9;        26;        27;        37;37.0      ;
Date        ;   22-1995;   10-2009;   31-1994;   04-1994;   13-2007;   11-1997;   03-2002;   09-1994;   05-2008;   27-2002;   14-2002;   26-1999;      1999;


Vitesse du vent moyenné sur 10 mn (Moyenne en m/s);
Statistiques établies sur la période 1989-2010;
            ;       3.3;       3.1;       3.1;         3;       2.8;       2.4;       2.4;       2.2;       2.4;       2.7;       2.8;       3.1;       2.8;


Nombre moyen de jours avec rafales;
Données non disponibles;



Nombre moyen de jours avec brouillard / orage / grêle / neige;
Données non disponibles;


- : donnée manquante;  . : donnée égale à 0;


Ces statistiques sont établies sur la période 1981-2010 sauf pour les paramètres suivants :  précipitations (1989-2010), température (1989-2010), vent (1989-2010).;

