FICHE CLIMATOLOGIQUE;
;
Statistiques  1981-2010  et  records;
LIMEIL (94)      Indicatif : 94044001, alt : 45m, lat : 48°45'00"N, lon : 02°29'06"E;
Edité le : 06/04/2020 dans l'état de la base;


            ;     Janv.;     Févr.;      Mars;     Avril;       Mai;      Juin;     Juil.;      Août;     Sept.;      Oct.;      Nov.;      Déc.;     Année;


La température la plus élevée (°C);
(Records établis sur la période du 01-01-1988 au 02-04-2020);
            ;        16;        22;        25;      28.5;      32.5;        37;        38;        41;      33.5;        29;        22;        18;        41;
Date        ;   13-2004;   27-2019;   30-2017;   25-2007;   28-2017;   27-2011;   01-2015;   06-2003;   13-2016;   01-2011;   06-2018;   16-1989;      2003;


Température maximale (Moyenne en °C);
Statistiques établies sur la période 1988-2010;
            ;       7.6;       9.1;      13.1;      16.3;      20.8;      23.7;      26.2;      26.2;      21.7;      16.9;        11;       7.5;      16.7;


Température moyenne (Moyenne en °C);
Statistiques établies sur la période 1988-2010;
            ;       4.9;       5.7;       8.7;      11.3;      15.5;      18.4;      20.6;      20.5;      16.6;      12.8;       7.8;         5;      12.4;


Température minimale (Moyenne en °C);
Statistiques établies sur la période 1988-2010;
            ;       2.2;       2.3;       4.4;       6.3;      10.2;      13.1;        15;      14.7;      11.4;       8.6;       4.6;       2.4;         8;


La température la plus basse (°C);
(Records établis sur la période du 01-01-1988 au 02-04-2020);
            ;       -12;     -11.6;        -8;        -3;         0;         4;       7.5;         7;         3;      -3.5;        -9;      -9.5;       -12;
Date        ;   08-2010;   07-1991;   01-2005;   08-2003;   06-2019;   12-2005;   04-1990;   21-2014;   25-2002;   30-1997;   24-1998;   29-1996;      2010;


Nombre moyen de jours avec;
Statistiques établies sur la période 1988-2010;
Tx >=  30°C ;         .;         .;         .;         .;       0.7;       2.9;       6.6;       6.3;       0.8;         .;         .;         .;      17.3;
Tx >=  25°C ;         .;         .;       0.0;       1.5;       6.6;      12.1;      18.6;      18.5;       5.7;       0.8;         .;         .;      63.8;
Tx <=   0°C ;       1.3;       0.6;         .;         .;         .;         .;         .;         .;         .;         .;       0.2;       0.8;       2.9;
Tn <=   0°C ;      10.0;       9.4;       4.5;       1.3;         .;         .;         .;         .;         .;       0.9;       4.9;      10.5;      41.4;
Tn <=  -5°C ;       2.0;       1.2;       0.0;         .;         .;         .;         .;         .;         .;         .;       0.7;       1.4;       5.3;
Tn <= -10°C ;       0.2;       0.0;         .;         .;         .;         .;         .;         .;         .;         .;         .;         .;       0.2;
(Tn=Température minimale. Tx=Température maximale);


Précipitations : Hauteur quotidienne maximale (mm);
(Records établis sur la période du 01-01-1921 au 02-04-2020);
            ;      30.4;      37.4;      27.6;      42.8;      59.5;      58.8;        55;        85;        78;      48.2;      34.8;      37.2;        85;
Date        ;   21-1995;   08-1941;   20-1978;   04-2000;   09-1927;   17-1986;   23-1988;   24-1987;   06-1952;   18-1939;   20-1965;   05-1988;      1987;


Précipitations : Hauteur moyenne mensuelle (mm);
            ;      53.9;      45.6;      48.9;      54.1;        63;      52.4;      59.4;      56.3;      55.9;        63;      53.7;      61.5;     667.7;


Nombre moyen de jours avec;
Rr >=  1 mm ;      11.5;      10.1;      10.8;       9.9;      10.9;       9.3;       7.8;       7.1;       8.8;      10.4;      11.0;      11.6;     119.1;
Rr >=  5 mm ;       3.9;       2.9;       3.4;       3.6;       4.2;       3.5;       3.4;       3.3;       3.7;       4.0;       3.8;       4.2;      43.8;
Rr >= 10 mm ;       0.9;       0.8;       0.8;       1.3;       1.8;       1.5;       1.8;       1.5;       1.6;       1.8;       1.2;       1.5;      16.4;
Rr : Hauteur quotidienne de précipitations;


Degrés Jours Unifiés (Moyenne en °C);
Statistiques établies sur la période 1988-2010;
            ;     401.3;     347.1;     287.7;     202.4;      91.5;      34.1;       9.1;       8.4;      59.6;     164.2;     305.9;     403.9;    2315.2;


Rayonnement global (Moyenne en J/cm²);
Données non disponibles;



Durée d'insolation (Moyenne en heures);
Données non disponibles;



Nombre moyen de jours avec fraction d'insolation;
Données non disponibles;



Evapotranspiration Potentielle (ETP Penman moyenne en mm);
Données non disponibles;



Rafale maximale de vent (m/s);
Données non disponibles;



Vitesse du vent moyenné sur 10 mn (Moyenne en m/s);
Données non disponibles;



Nombre moyen de jours avec rafales;
Données non disponibles;



Nombre moyen de jours avec brouillard / orage / grêle / neige;
Données non disponibles;


- : donnée manquante;  . : donnée égale à 0;


Ces statistiques sont établies sur la période 1981-2010 sauf pour les paramètres suivants :  température (1988-2010).;

