FICHE CLIMATOLOGIQUE;
;
Statistiques  1981-2010  et  records;
CRECY-SPC (77)      Indicatif : 77142002, alt : 135m, lat : 48°52'06"N, lon : 02°55'24"E;
Edité le : 06/04/2020 dans l'état de la base;


            ;     Janv.;     Févr.;      Mars;     Avril;       Mai;      Juin;     Juil.;      Août;     Sept.;      Oct.;      Nov.;      Déc.;     Année;


La température la plus élevée (°C);
(Records établis sur la période du 01-04-1995 au 21-12-2012);
            ;        16;      17.3;      22.8;      28.2;      30.8;      33.8;      36.4;      39.4;      30.9;      25.9;      19.1;      17.2;      39.4;
Date        ;   05-1999;   05-2004;   16-2005;   25-2007;   27-2005;   20-2005;   19-2006;   07-2003;   11-1999;   07-2009;   03-2005;   07-2000;      2003;


Température maximale (Moyenne en °C);
Statistiques établies sur la période 1995-2010;
            ;       6.1;       7.9;      11.6;      15.1;        19;      22.4;      24.6;      24.6;      20.6;        16;       9.9;       6.4;      15.4;


Température moyenne (Moyenne en °C);
Statistiques établies sur la période 1995-2010;
            ;       3.7;       4.9;       7.7;      10.5;      14.2;      17.3;      19.2;      19.3;      15.8;      12.3;       7.2;       4.2;      11.4;


Température minimale (Moyenne en °C);
Statistiques établies sur la période 1995-2010;
            ;       1.3;       1.9;       3.8;       5.8;       9.4;      12.1;      13.9;        14;        11;       8.5;       4.5;         2;       7.4;


La température la plus basse (°C);
(Records établis sur la période du 01-04-1995 au 21-12-2012);
            ;     -14.1;      -9.3;      -9.2;        -3;       0.1;       3.1;       6.2;       6.6;       2.7;        -3;        -9;     -11.1;     -14.1;
Date        ;   01-1997;   22-1996;   01-2005;   02-1996;   08-1997;   04-2001;   09-1996;   28-1998;   25-2002;   21-2010;   24-1998;   29-1996;      1997;


Nombre moyen de jours avec;
Statistiques établies sur la période 1995-2010;
Tx >=  30°C ;         .;         .;         .;         .;       0.1;       1.1;       3.4;       4.0;       0.2;         .;         .;         .;       8.8;
Tx >=  25°C ;         .;         .;         .;       0.8;       2.9;       8.2;      13.4;      12.6;       3.9;       0.3;         .;         .;      42.1;
Tx <=   0°C ;       2.8;       1.3;         .;         .;         .;         .;         .;         .;         .;         .;       0.2;       2.1;       6.4;
Tn <=   0°C ;      11.7;       9.7;       4.9;       1.7;         .;         .;         .;         .;         .;       1.0;       4.4;      10.9;      44.3;
Tn <=  -5°C ;       2.9;       1.0;       0.1;         .;         .;         .;         .;         .;         .;         .;       0.3;       1.5;       5.8;
Tn <= -10°C ;       0.3;         .;         .;         .;         .;         .;         .;         .;         .;         .;         .;       0.2;       0.5;
(Tn=Température minimale. Tx=Température maximale);


Précipitations : Hauteur quotidienne maximale (mm);
(Records établis sur la période du 01-04-1995 au 21-12-2012);
            ;      20.4;      32.2;      24.8;      29.2;      30.2;      28.4;        47;      67.6;      24.6;        41;        23;      25.4;      67.6;
Date        ;   12-2004;   25-1997;   18-2002;   24-1995;   19-2003;   11-1997;   07-2000;   15-2010;   17-2001;   20-2001;   06-1997;   29-2001;      2010;


Précipitations : Hauteur moyenne mensuelle (mm);
Statistiques établies sur la période 1995-2010;
            ;        52;      52.6;      49.6;      50.2;      58.7;      42.8;      66.2;      68.9;      48.7;      57.7;      61.1;      62.4;     670.9;


Nombre moyen de jours avec;
Statistiques établies sur la période 1995-2010;
Rr >=  1 mm ;      10.7;      10.7;      10.7;       9.7;       9.4;       7.9;       8.4;       9.2;       8.2;       9.8;      12.1;      11.4;     118.3;
Rr >=  5 mm ;       4.0;       3.3;       3.5;       3.6;       4.2;       3.2;       4.0;       4.5;       3.4;       3.6;       4.5;       4.9;      46.8;
Rr >= 10 mm ;       1.1;       0.9;       0.9;       1.2;       1.4;       1.0;       2.2;       2.1;       1.4;       1.8;       1.3;       1.1;      16.4;
Rr : Hauteur quotidienne de précipitations;


Degrés Jours Unifiés (Moyenne en °C);
Statistiques établies sur la période 1995-2010;
            ;     443.8;     370.7;     320.5;     226.2;     124.5;      52.1;      21.3;      19.4;      78.4;     180.4;     324.3;     428.5;    2590.1;


Rayonnement global (Moyenne en J/cm²);
Données non disponibles;



Durée d'insolation (Moyenne en heures);
Données non disponibles;



Nombre moyen de jours avec fraction d'insolation;
Données non disponibles;



Evapotranspiration Potentielle (ETP Penman moyenne en mm);
Données non disponibles;



Rafale maximale de vent (m/s);
Données non disponibles;



Vitesse du vent moyenné sur 10 mn (Moyenne en m/s);
Données non disponibles;



Nombre moyen de jours avec rafales;
Données non disponibles;



Nombre moyen de jours avec brouillard / orage / grêle / neige;
Données non disponibles;


- : donnée manquante;  . : donnée égale à 0;


Ces statistiques sont établies sur la période 1981-2010 sauf pour les paramètres suivants :  précipitations (1995-2010), température (1995-2010).;

