FICHE CLIMATOLOGIQUE;
;
Statistiques  1981-2010  et  records;
BRAINE (02)      Indicatif : 02110002, alt : 61m, lat : 49°21'00"N, lon : 03°31'36"E;
Edité le : 06/04/2020 dans l'état de la base;


            ;     Janv.;     Févr.;      Mars;     Avril;       Mai;      Juin;     Juil.;      Août;     Sept.;      Oct.;      Nov.;      Déc.;     Année;


La température la plus élevée (°C);
(Records établis sur la période du 01-08-1988 au 02-04-2020);
            ;      16.3;      20.2;      23.5;      29.1;      32.5;      36.6;      42.1;      40.2;      32.9;      28.9;      21.3;      17.1;      42.1;
Date        ;   05-1999;   27-2019;   30-2017;   25-2007;   28-2017;   28-2011;   25-2019;   12-2003;   05-2013;   03-2011;   07-2015;   17-2015;      2019;


Température maximale (Moyenne en °C);
Statistiques établies sur la période 1988-2010;
            ;       6.5;       8.1;      12.2;      15.3;      19.6;      22.4;      25.1;        25;      20.7;        16;        10;       6.6;      15.7;


Température moyenne (Moyenne en °C);
Statistiques établies sur la période 1988-2010;
            ;       3.8;       4.7;       7.7;       9.8;      13.9;      16.5;        19;      18.8;      15.3;      11.7;       6.9;       4.1;      11.1;


Température minimale (Moyenne en °C);
Statistiques établies sur la période 1988-2010;
            ;       1.1;       1.3;       3.1;       4.4;       8.2;      10.7;      12.8;      12.6;       9.8;       7.5;       3.8;       1.5;       6.4;


La température la plus basse (°C);
(Records établis sur la période du 01-08-1988 au 02-04-2020);
            ;     -15.7;     -15.3;     -10.7;        -5;      -1.8;       0.5;       4.4;       3.2;      -0.7;      -5.3;     -12.6;     -12.3;     -15.7;
Date        ;   01-1997;   04-2012;   13-2013;   08-2003;   05-1996;   04-1991;   03-2011;   29-1993;   30-2018;   30-1997;   24-1998;   29-1996;      1997;


Nombre moyen de jours avec;
Statistiques établies sur la période 1988-2010;
Tx >=  30°C ;         .;         .;         .;         .;       0.1;       1.5;       4.7;       4.2;       0.4;         .;         .;         .;      10.9;
Tx >=  25°C ;         .;         .;         .;       1.0;       4.0;       8.6;      15.0;      13.7;       4.1;       0.4;         .;         .;      46.7;
Tx <=   0°C ;       2.1;       1.1;       0.1;         .;         .;         .;         .;         .;         .;         .;       0.3;       1.6;       5.1;
Tn <=   0°C ;      12.8;      11.4;       8.3;       4.4;       0.1;         .;         .;         .;         .;       2.0;       6.4;      12.3;      57.8;
Tn <=  -5°C ;       3.6;       2.1;       0.4;       0.1;         .;         .;         .;         .;         .;       0.0;       1.0;       2.5;       9.7;
Tn <= -10°C ;       0.5;       0.2;         .;         .;         .;         .;         .;         .;         .;         .;       0.1;       0.3;       1.1;
(Tn=Température minimale. Tx=Température maximale);


Précipitations : Hauteur quotidienne maximale (mm);
(Records établis sur la période du 01-08-1988 au 02-04-2020);
            ;      46.4;      28.2;      30.2;      31.8;      38.5;      50.6;      35.2;      62.5;        28;      39.4;      22.8;      27.3;      62.5;
Date        ;   11-1993;   14-1990;   18-2002;   30-1993;   30-2016;   24-1992;   17-2004;   15-2010;   08-2017;   28-1990;   06-1997;   04-2011;      2010;


Précipitations : Hauteur moyenne mensuelle (mm);
Statistiques établies sur la période 1988-2010;
            ;      57.1;      47.5;      52.1;      51.7;      56.5;      54.4;      61.6;      65.1;      47.4;      56.9;      54.7;      70.4;     675.4;


Nombre moyen de jours avec;
Statistiques établies sur la période 1988-2010;
Rr >=  1 mm ;      10.8;      10.8;      10.5;      10.2;       9.1;       9.0;       9.4;       9.0;       8.7;       9.5;      10.7;      12.0;     119.6;
Rr >=  5 mm ;       4.0;       2.9;       3.4;       3.9;       4.1;       3.8;       4.4;       3.7;       2.9;       3.5;       3.8;       5.1;      45.3;
Rr >= 10 mm ;       1.6;       0.7;       1.0;       1.1;       1.6;       1.2;       1.9;       2.0;       1.1;       1.6;       1.4;       2.1;      17.3;
Rr : Hauteur quotidienne de précipitations;


Degrés Jours Unifiés (Moyenne en °C);
Statistiques établies sur la période 1988-2010;
            ;     440.3;     375.1;     320.3;     245.1;     130.9;      64.7;      22.6;      23.4;      89.8;     195.6;     333.4;     432.3;    2673.5;


Rayonnement global (Moyenne en J/cm²);
Données non disponibles;



Durée d'insolation (Moyenne en heures);
Données non disponibles;



Nombre moyen de jours avec fraction d'insolation;
Données non disponibles;



Evapotranspiration Potentielle (ETP Penman moyenne en mm);
Données non disponibles;



Rafale maximale de vent (m/s);
(Records établis sur la période du 01-01-1989 au 02-04-2020);
            ;      35.8;        33;        30;        25;      24.4;      23.6;      24.8;        23;        24;      27.1;        25;        36;36.0      ;
Date        ;   12-2017;   28-1990;   10-2019;   01-1994;   25-2009;   08-2014;   14-2010;   18-2004;   07-1995;   28-2013;   11-1992;   26-1999;      1999;


Vitesse du vent moyenné sur 10 mn (Moyenne en m/s);
Statistiques établies sur la période 1989-2010;
            ;       3.4;       3.3;       3.2;         3;       2.6;       2.4;       2.4;       2.2;       2.3;       2.7;       2.9;       3.3;       2.8;


Nombre moyen de jours avec rafales;
Statistiques établies sur la période 1989-2010;
>= 16 m/s   ;       5.6;       5.1;       3.9;         -;       1.7;       1.1;       1.3;         -;       1.5;       2.3;       2.6;       4.8;         -;
>= 28 m/s   ;       0.2;       0.4;         .;         -;         .;         .;         .;         -;         .;         .;         .;       0.1;         -;
(16 m/s = 58 km/h,  28 m/s = 100 km/h);


Nombre moyen de jours avec brouillard / orage / grêle / neige;
Données non disponibles;


- : donnée manquante;  . : donnée égale à 0;


Ces statistiques sont établies sur la période 1981-2010 sauf pour les paramètres suivants :  précipitations (1988-2010), température (1988-2010), vent (1989-2010).;

