FICHE CLIMATOLOGIQUE;
;
Statistiques  1981-2010  et  records;
BLESMES (02)      Indicatif : 02094001, alt : 222m, lat : 49°00'30"N, lon : 03°27'42"E;
Edité le : 06/04/2020 dans l'état de la base;


            ;     Janv.;     Févr.;      Mars;     Avril;       Mai;      Juin;     Juil.;      Août;     Sept.;      Oct.;      Nov.;      Déc.;     Année;


La température la plus élevée (°C);
(Records établis sur la période du 01-01-1987 au 02-04-2020);
            ;        15;      19.1;      21.7;      27.5;      30.8;      34.7;      40.3;      38.5;        32;      26.8;      20.4;      15.8;      40.3;
Date        ;   05-1999;   27-2019;   25-2003;   20-2018;   28-2017;   21-2017;   25-2019;   12-2003;   05-2013;   01-2011;   07-2015;   16-1989;      2019;


Température maximale (Moyenne en °C);
Statistiques établies sur la période 1987-2010;
            ;       5.1;       6.7;      10.5;      14.1;      18.3;      21.1;        24;      24.2;      19.7;      14.8;       8.9;       5.4;      14.4;


Température moyenne (Moyenne en °C);
Statistiques établies sur la période 1987-2010;
            ;       2.8;       3.8;       6.7;       9.3;      13.2;      15.8;      18.3;      18.4;      14.9;      11.2;       6.2;       3.2;      10.4;


Température minimale (Moyenne en °C);
Statistiques établies sur la période 1987-2010;
            ;       0.5;       0.9;       2.8;       4.5;       8.1;      10.5;      12.5;      12.7;      10.1;       7.5;       3.4;       1.1;       6.2;


La température la plus basse (°C);
(Records établis sur la période du 01-01-1987 au 02-04-2020);
            ;     -15.3;     -14.3;     -11.5;      -6.4;      -0.7;       0.3;       4.4;         4;       1.6;      -4.2;     -10.2;     -11.4;     -15.3;
Date        ;   12-1987;   07-1991;   13-2013;   08-2003;   06-2019;   04-1991;   26-1987;   29-1993;   27-1990;   24-2003;   30-2010;   29-1996;      1987;


Nombre moyen de jours avec;
Statistiques établies sur la période 1987-2010;
Tx >=  30°C ;         .;         .;         .;         .;         .;       0.5;       3.0;       2.9;         .;         .;         .;         .;       6.4;
Tx >=  25°C ;         .;         .;         .;       0.3;       2.3;       6.0;      12.7;      12.6;       2.9;       0.0;         .;         .;      36.8;
Tx <=   0°C ;       4.0;       1.9;       0.2;         .;         .;         .;         .;         .;         .;         .;       0.5;       3.2;       9.8;
Tn <=   0°C ;      14.0;      11.7;       7.3;       3.1;       0.1;         .;         .;         .;         .;       1.2;       6.0;      13.3;      56.8;
Tn <=  -5°C ;       3.5;       2.2;       0.3;       0.0;         .;         .;         .;         .;         .;         .;       0.6;       2.3;       9.0;
Tn <= -10°C ;       0.6;       0.3;         .;         .;         .;         .;         .;         .;         .;         .;       0.0;       0.2;       1.1;
(Tn=Température minimale. Tx=Température maximale);


Précipitations : Hauteur quotidienne maximale (mm);
(Records établis sur la période du 01-01-1987 au 02-04-2020);
            ;      39.2;      28.4;      29.8;      25.6;      47.6;      66.8;        60;        59;        60;      36.6;      24.9;      31.8;      66.8;
Date        ;   21-1995;   14-1990;   18-2002;   14-1999;   22-2016;   14-2009;   07-2000;   15-2010;   01-1987;   28-1990;   20-2015;   05-1988;      2009;


Précipitations : Hauteur moyenne mensuelle (mm);
Statistiques établies sur la période 1987-2010;
            ;      63.2;      56.7;      56.8;      51.7;      60.2;      57.5;      61.7;      63.5;        58;      65.7;      60.7;      73.3;       729;


Nombre moyen de jours avec;
Statistiques établies sur la période 1987-2010;
Rr >=  1 mm ;      11.1;      10.6;      11.2;       9.7;       9.3;       9.4;       8.9;       8.4;       8.9;      10.5;      11.3;      12.0;     121.2;
Rr >=  5 mm ;       4.5;       3.7;       3.8;       3.7;       4.4;       4.3;       4.3;       3.8;       3.6;       4.8;       4.3;       5.4;      50.5;
Rr >= 10 mm ;       1.7;       1.3;       1.2;       1.2;       1.7;       1.8;       1.8;       2.0;       1.7;       1.8;       1.6;       1.9;      19.8;
Rr : Hauteur quotidienne de précipitations;


Degrés Jours Unifiés (Moyenne en °C);
Statistiques établies sur la période 1987-2010;
            ;     471.8;       401;     351.2;     260.4;     151.8;      82.1;      33.8;      31.9;     100.8;     212.5;     355.3;     457.3;    2909.9;


Rayonnement global (Moyenne en J/cm²);
Données non disponibles;



Durée d'insolation (Moyenne en heures);
Données non disponibles;



Nombre moyen de jours avec fraction d'insolation;
Données non disponibles;



Evapotranspiration Potentielle (ETP Penman moyenne en mm);
Données non disponibles;



Rafale maximale de vent (m/s);
(Records établis sur la période du 01-01-1989 au 02-04-2020);
            ;        33;        38;      32.5;        29;      28.8;        24;        26;      22.5;      21.5;        29;        26;        41;41.0      ;
Date        ;   25-1990;   03-1990;   28-2016;   01-1994;   25-2009;   04-1994;   28-1994;   24-2015;   24-2012;   01-1993;   11-1992;   26-1999;      1999;


Vitesse du vent moyenné sur 10 mn (Moyenne en m/s);
Statistiques établies sur la période 1989-2010;
            ;       4.7;       4.6;       4.3;       3.9;       3.5;       3.2;         -;       3.2;       3.5;       4.1;       4.3;       4.6;         -;


Nombre moyen de jours avec rafales;
Statistiques établies sur la période 1989-2010;
>= 16 m/s   ;       6.7;       5.7;       4.9;       3.0;       2.3;         -;         -;         -;         -;         -;       4.0;         -;         -;
>= 28 m/s   ;       0.4;       0.3;       0.1;       0.1;       0.1;         -;         -;         -;         -;         -;         .;         -;         -;
(16 m/s = 58 km/h,  28 m/s = 100 km/h);


Nombre moyen de jours avec brouillard / orage / grêle / neige;
Données non disponibles;


- : donnée manquante;  . : donnée égale à 0;


Ces statistiques sont établies sur la période 1981-2010 sauf pour les paramètres suivants :  précipitations (1987-2010), température (1987-2010), vent (1989-2010).;

