FICHE CLIMATOLOGIQUE;
;
Statistiques  1981-2010  et  records;
SALPETRIERE (75)      Indicatif : 75113002, alt : 34m, lat : 48°50'18"N, lon : 02°22'00"E;
Edité le : 06/04/2020 dans l'état de la base;


            ;     Janv.;     Févr.;      Mars;     Avril;       Mai;      Juin;     Juil.;      Août;     Sept.;      Oct.;      Nov.;      Déc.;     Année;


La température la plus élevée (°C);
(Records établis sur la période du 01-09-1987 au 30-12-2014);
            ;      16.5;      20.7;      25.5;        30;        34;      38.5;        37;      40.5;        34;      30.5;        20;      17.4;      40.5;
Date        ;   28-2002;   24-1990;   29-1989;   25-2007;   27-2005;   27-2011;   18-2006;   12-2003;   05-2013;   01-2011;   03-2005;   16-1989;      2003;


Température maximale (Moyenne en °C);
Statistiques établies sur la période 1987-2010;
            ;       8.1;       9.5;      13.4;      16.6;      21.1;      23.8;      26.2;      26.3;        22;      17.1;      11.2;         8;        17;


Température moyenne (Moyenne en °C);
Statistiques établies sur la période 1987-2010;
            ;       5.8;       6.6;       9.7;      12.2;      16.3;      19.1;      21.3;      21.3;      17.5;      13.5;       8.6;       5.8;      13.2;


Température minimale (Moyenne en °C);
Statistiques établies sur la période 1987-2010;
            ;       3.4;       3.7;       5.9;       7.9;      11.6;      14.3;      16.3;      16.3;      13.1;        10;       6.1;       3.7;       9.4;


La température la plus basse (°C);
(Records établis sur la période du 01-09-1987 au 30-12-2014);
            ;     -10.5;     -11.3;      -4.5;      -0.3;       3.2;         7;       9.8;        10;         5;      -0.2;      -5.3;        -8;     -11.3;
Date        ;   01-1997;   07-1991;   01-2005;   02-2013;   07-1997;   01-2006;   04-1990;   21-2014;   30-2002;   29-1997;   24-1998;   29-1996;      1991;


Nombre moyen de jours avec;
Statistiques établies sur la période 1987-2010;
Tx >=  30°C ;         .;         .;         .;       0.0;       1.0;       2.8;       6.5;       6.4;       1.1;         .;         .;         .;      17.9;
Tx >=  25°C ;         .;         .;       0.1;       1.6;       7.3;      12.2;      18.4;      18.4;       6.1;       0.8;         .;         .;      64.8;
Tx <=   0°C ;       1.1;       0.5;         .;         .;         .;         .;         .;         .;         .;         .;       0.1;       0.4;       2.0;
Tn <=   0°C ;       6.3;       4.6;       1.3;       0.0;         .;         .;         .;         .;         .;       0.1;       2.2;       5.9;      20.4;
Tn <=  -5°C ;       1.0;       0.2;         .;         .;         .;         .;         .;         .;         .;         .;       0.1;       0.3;       1.6;
Tn <= -10°C ;       0.0;       0.0;         .;         .;         .;         .;         .;         .;         .;         .;         .;         .;       0.1;
(Tn=Température minimale. Tx=Température maximale);


Précipitations : Hauteur quotidienne maximale (mm);
(Records établis sur la période du 01-03-1977 au 02-04-2020);
            ;      33.9;      30.2;      32.5;        41;        59;        46;        77;       105;      38.9;      41.2;        23;      42.2;       105;
Date        ;   21-1995;   13-2002;   07-1989;   30-1993;   30-2016;   11-2018;   02-1995;   24-1987;   19-1999;   06-1997;   09-2013;   05-1988;      1987;


Précipitations : Hauteur moyenne mensuelle (mm);
            ;      53.4;      43.4;      48.7;      51.5;      62.8;      52.3;      59.1;      54.4;      50.8;      62.7;      52.5;      60.5;     652.1;


Nombre moyen de jours avec;
Rr >=  1 mm ;      10.6;       9.5;      10.5;       9.3;       9.8;       8.6;       8.0;       7.8;       8.3;       9.8;      10.5;      11.2;     113.9;
Rr >=  5 mm ;       3.7;       2.9;       3.6;       3.7;       4.6;       3.7;       3.5;       3.2;       3.7;       3.9;       3.9;       4.7;      45.1;
Rr >= 10 mm ;       1.3;       0.9;       0.7;       1.2;       1.8;       1.7;       1.7;       1.5;       1.4;       1.6;       1.2;       1.3;      16.4;
Rr : Hauteur quotidienne de précipitations;


Degrés Jours Unifiés (Moyenne en °C);
Statistiques établies sur la période 1987-2010;
            ;     379.6;     322.2;     253.6;     176.3;      76.1;      26.7;       6.2;       4.3;      41.5;       141;     281.4;     377.2;    2086.1;


Rayonnement global (Moyenne en J/cm²);
Données non disponibles;



Durée d'insolation (Moyenne en heures);
Données non disponibles;



Nombre moyen de jours avec fraction d'insolation;
Données non disponibles;



Evapotranspiration Potentielle (ETP Penman moyenne en mm);
Données non disponibles;



Rafale maximale de vent (m/s);
Données non disponibles;



Vitesse du vent moyenné sur 10 mn (Moyenne en m/s);
Données non disponibles;



Nombre moyen de jours avec rafales;
Données non disponibles;



Nombre moyen de jours avec brouillard / orage / grêle / neige;
Données non disponibles;


- : donnée manquante;  . : donnée égale à 0;


Ces statistiques sont établies sur la période 1981-2010 sauf pour les paramètres suivants :  température (1987-2010).;

