FICHE CLIMATOLOGIQUE;
;
Statistiques  1981-2010  et  records;
BEAUNE-LA-ROL. (45)      Indicatif : 45030002, alt : 106m, lat : 48°04'00"N, lon : 02°25'18"E;
Edité le : 06/04/2020 dans l'état de la base;


            ;     Janv.;     Févr.;      Mars;     Avril;       Mai;      Juin;     Juil.;      Août;     Sept.;      Oct.;      Nov.;      Déc.;     Année;


La température la plus élevée (°C);
(Records établis sur la période du 01-01-1979 au 30-06-2003);
            ;      16.5;        20;      23.5;      26.5;        31;        34;        36;        38;        31;      29.4;      20.5;      17.7;        38;
Date        ;   30-2002;   24-1990;   17-1990;   30-1994;   31-2003;   17-2002;   20-1998;   10-1998;   11-2000;   01-1985;   03-1993;   02-1985;      1998;


Température maximale (Moyenne en °C);
Statistiques établies sur la période 1981-2003;
            ;       6.7;       7.7;      11.6;      14.2;      18.7;      21.9;      24.6;      24.9;      20.7;      16.1;      10.5;       7.7;      15.5;


Température moyenne (Moyenne en °C);
Statistiques établies sur la période 1981-2003;
            ;       3.9;         4;       7.1;       9.1;      13.5;      16.7;      18.8;      18.8;      15.3;      11.8;       7.1;       4.9;        11;


Température minimale (Moyenne en °C);
Statistiques établies sur la période 1981-2003;
            ;         1;       0.4;       2.5;       3.9;       8.4;      11.4;        13;      12.8;       9.9;       7.5;       3.7;       2.2;       6.4;


La température la plus basse (°C);
(Records établis sur la période du 01-01-1979 au 30-06-2003);
            ;     -20.5;       -20;        -8;      -4.5;      -1.5;         1;       3.8;       3.5;         1;      -4.5;       -11;       -12;     -20.5;
Date        ;   17-1985;   25-1986;   13-1987;   06-1996;   03-1979;   05-1991;   04-1984;   30-1993;   28-1990;   31-1996;   23-1993;   30-1996;      1985;


Nombre moyen de jours avec;
Statistiques établies sur la période 1981-2003;
Tx >=  30°C ;         .;         .;         .;         .;       0.2;       1.5;       4.1;       4.4;       0.4;         .;         .;         .;      10.7;
Tx >=  25°C ;         .;         .;         .;       0.1;       3.9;       8.3;      15.1;      15.2;       4.7;       0.9;         .;         .;      48.2;
Tx <=   0°C ;       2.8;       1.5;       0.1;         .;         .;         .;         .;         .;         .;         .;       0.3;       1.3;       5.9;
Tn <=   0°C ;      13.2;      14.4;      10.0;       5.7;       0.2;         .;         .;         .;         .;       1.4;       7.4;      11.1;      63.3;
Tn <=  -5°C ;       3.8;       3.8;       1.0;         .;         .;         .;         .;         .;         .;         .;       1.2;       1.9;      11.8;
Tn <= -10°C ;       1.2;       0.4;         .;         .;         .;         .;         .;         .;         .;         .;       0.1;       0.2;       1.9;
(Tn=Température minimale. Tx=Température maximale);


Précipitations : Hauteur quotidienne maximale (mm);
(Records établis sur la période du 01-12-1977 au 28-02-2019);
            ;        32;      40.5;      18.4;      69.5;      57.5;      36.8;        45;        58;      59.5;      40.5;        36;      29.5;      69.5;
Date        ;   04-1979;   13-2002;   31-2016;   29-2014;   30-2016;   23-2005;   04-2001;   24-1987;   07-2010;   01-1984;   01-1999;   16-1982;      2014;


Précipitations : Hauteur moyenne mensuelle (mm);
            ;      53.9;        48;      48.5;      53.9;      61.6;      52.2;      56.2;      46.4;      56.5;      64.6;        59;      64.3;     665.1;


Nombre moyen de jours avec;
Rr >=  1 mm ;      11.6;      10.3;      10.4;      10.0;      10.6;       8.2;       7.6;       6.9;       8.1;      10.2;      11.1;      11.8;     116.9;
Rr >=  5 mm ;       3.8;       3.0;       3.8;       3.9;       4.4;       3.4;       3.5;       3.1;       3.8;       4.3;       4.2;       5.0;      46.2;
Rr >= 10 mm ;       1.2;       1.0;       0.8;       1.3;       1.7;       1.7;       1.9;       1.3;       1.6;       2.1;       1.5;       1.7;      17.7;
Rr : Hauteur quotidienne de précipitations;


Degrés Jours Unifiés (Moyenne en °C);
Statistiques établies sur la période 1981-2003;
            ;     438.4;     393.7;     339.2;     268.3;     144.4;      64.5;      25.1;      25.9;      89.3;       193;     327.9;     405.7;    2715.4;


Rayonnement global (Moyenne en J/cm²);
Données non disponibles;



Durée d'insolation (Moyenne en heures);
Données non disponibles;



Nombre moyen de jours avec fraction d'insolation;
Données non disponibles;



Evapotranspiration Potentielle (ETP Penman moyenne en mm);
Données non disponibles;



Rafale maximale de vent (m/s);
Données non disponibles;



Vitesse du vent moyenné sur 10 mn (Moyenne en m/s);
Données non disponibles;



Nombre moyen de jours avec rafales;
Données non disponibles;



Nombre moyen de jours avec brouillard / orage / grêle / neige;
Données non disponibles;


- : donnée manquante;  . : donnée égale à 0;


Ces statistiques sont établies sur la période 1981-2010 sauf pour les paramètres suivants :  température (1981-2003).;

