FICHE CLIMATOLOGIQUE;
;
Statistiques  1981-2010  et  records;
GUICHAINVILLE (27)      Indicatif : 27306001, alt : 147m, lat : 48°58'36"N, lon : 01°10'54"E;
Edité le : 06/04/2020 dans l'état de la base;


            ;     Janv.;     Févr.;      Mars;     Avril;       Mai;      Juin;     Juil.;      Août;     Sept.;      Oct.;      Nov.;      Déc.;     Année;


La température la plus élevée (°C);
(Records établis sur la période du 01-05-1951 au 02-04-2020);
            ;      15.2;      20.2;      23.6;      28.8;      31.8;      36.8;      41.5;      39.2;      33.4;      29.2;      20.6;      16.4;      41.5;
Date        ;   16-1993;   28-1960;   29-1989;   17-1952;   07-1976;   27-2011;   25-2019;   10-2003;   02-1961;   01-1985;   02-1982;   04-1961;      2019;


Température maximale (Moyenne en °C);
            ;       6.7;       7.9;      11.6;      14.8;      18.8;      22.2;      24.8;      24.9;      21.1;      16.1;      10.4;         7;      15.6;


Température moyenne (Moyenne en °C);
            ;       3.8;       4.2;       7.1;       9.4;      13.1;      16.2;      18.5;      18.4;      15.2;      11.6;       6.9;       4.2;      10.8;


Température minimale (Moyenne en °C);
            ;       0.8;       0.6;       2.6;         4;       7.5;      10.2;      12.2;        12;       9.4;         7;       3.4;       1.3;       5.9;


La température la plus basse (°C);
(Records établis sur la période du 01-05-1951 au 02-04-2020);
            ;     -18.4;       -17;       -11;        -9;        -4;        -2;      -0.4;         1;      -1.6;      -5.6;     -12.4;     -12.4;     -18.4;
Date        ;   08-1985;   05-1954;   13-2013;   22-1956;   06-1957;   05-1991;   01-1960;   30-1972;   21-1962;   29-1955;   22-1956;   31-1970;      1985;


Nombre moyen de jours avec;
Tx >=  30°C ;         .;         .;         .;         .;       0.1;       1.8;       5.0;       4.1;       0.8;         .;         .;         .;      11.8;
Tx >=  25°C ;         .;         .;         .;       0.4;       3.3;       7.8;      14.6;      13.8;       4.9;       0.5;         .;         .;      45.3;
Tx <=   0°C ;       2.5;       1.1;         .;         .;         .;         .;         .;         .;         .;         .;       0.2;       1.5;       5.2;
Tn <=   0°C ;      13.2;      13.3;       9.3;       4.0;       0.3;       0.1;         .;         .;       0.0;       1.8;       7.3;      12.7;      62.0;
Tn <=  -5°C ;       3.2;       3.1;       0.4;       0.0;         .;         .;         .;         .;         .;       0.0;       0.9;       2.2;       9.9;
Tn <= -10°C ;       1.1;       0.2;         .;         .;         .;         .;         .;         .;         .;         .;         .;       0.1;       1.3;
(Tn=Température minimale. Tx=Température maximale);


Précipitations : Hauteur quotidienne maximale (mm);
(Records établis sur la période du 01-05-1951 au 02-04-2020);
            ;      26.5;      24.5;      34.7;      32.8;      45.5;        48;      49.2;      40.8;      33.5;      33.2;        40;      38.6;      49.2;
Date        ;   11-1993;   13-2002;   07-1989;   14-1956;   31-2018;   11-2018;   03-1975;   03-1963;   22-1999;   21-1955;   26-1961;   05-1988;      1975;


Précipitations : Hauteur moyenne mensuelle (mm);
            ;      57.6;      45.8;      52.4;      48.2;      57.5;      53.1;      57.1;      39.9;      55.4;      64.1;      55.5;      68.1;     654.7;


Nombre moyen de jours avec;
Rr >=  1 mm ;      11.5;       9.6;      11.0;       9.7;      10.6;       8.6;       8.3;       7.3;       8.5;      11.1;      11.3;      12.5;     120.0;
Rr >=  5 mm ;       4.2;       3.0;       3.6;       3.7;       4.0;       3.5;       3.8;       2.8;       3.7;       4.4;       4.0;       4.7;      45.5;
Rr >= 10 mm ;       1.1;       0.8;       0.9;       0.9;       1.3;       1.5;       2.0;       1.1;       1.8;       1.8;       1.0;       1.7;      15.9;
Rr : Hauteur quotidienne de précipitations;


Degrés Jours Unifiés (Moyenne en °C);
            ;     441.6;     389.3;     337.1;     257.5;       154;      72.3;      30.7;      29.3;      91.3;     200.2;     332.8;     429.3;    2765.4;


Rayonnement global (Moyenne en J/cm²);
Données non disponibles;



Durée d'insolation (Moyenne en heures);
Données non disponibles;



Nombre moyen de jours avec fraction d'insolation;
Données non disponibles;



Evapotranspiration Potentielle (ETP Penman moyenne en mm);
Données non disponibles;



Rafale maximale de vent (m/s);
Données non disponibles;



Vitesse du vent moyenné sur 10 mn (Moyenne en m/s);
Données non disponibles;



Nombre moyen de jours avec rafales;
Données non disponibles;



Nombre moyen de jours avec brouillard / orage / grêle / neige;
Données non disponibles;


- : donnée manquante;  . : donnée égale à 0;


Ces statistiques sont établies sur la période 1981-2010.;
