FICHE CLIMATOLOGIQUE;
;
Statistiques  1981-2010  et  records;
SOISSONS (02)      Indicatif : 02722002, alt : 40m, lat : 49°23'24"N, lon : 03°18'36"E;
Edité le : 06/04/2020 dans l'état de la base;


            ;     Janv.;     Févr.;      Mars;     Avril;       Mai;      Juin;     Juil.;      Août;     Sept.;      Oct.;      Nov.;      Déc.;     Année;


La température la plus élevée (°C);
(Records établis sur la période du 01-01-1963 au 31-01-2002);
            ;        17;        20;      24.1;      28.5;      32.2;      35.5;      37.3;      38.3;      32.6;      27.9;      20.6;      17.8;      38.3;
Date        ;   06-1999;   24-1990;   17-1990;   30-1994;   12-1998;   26-2001;   21-1995;   11-1998;   04-1973;   03-1985;   04-1994;   16-1989;      1998;


Température maximale (Moyenne en °C);
Statistiques établies sur la période 1981-2002;
            ;       6.7;       7.9;      12.1;      15.2;      19.9;      22.2;      25.5;      25.4;      20.9;      16.2;      10.2;       7.3;      15.8;


Température moyenne (Moyenne en °C);
Statistiques établies sur la période 1981-2002;
            ;       3.6;       4.1;       7.6;       9.9;      14.2;      16.7;      19.4;      19.2;      15.6;      11.8;       6.9;       4.6;      11.2;


Température minimale (Moyenne en °C);
Statistiques établies sur la période 1981-2002;
            ;       0.6;       0.3;       3.1;       4.7;       8.6;      11.2;      13.3;        13;      10.2;       7.3;       3.5;       1.8;       6.5;


La température la plus basse (°C);
(Records établis sur la période du 01-01-1963 au 31-01-2002);
            ;     -21.7;     -17.7;      -9.5;      -4.2;      -1.5;         2;         4;       4.1;      -0.1;        -4;      -9.5;     -16.7;     -21.7;
Date        ;   17-1985;   05-1963;   07-1971;   04-1973;   01-1979;   21-1964;   09-1963;   28-1979;   26-1972;   30-1997;   24-1998;   31-1970;      1985;


Nombre moyen de jours avec;
Statistiques établies sur la période 1981-2002;
Tx >=  30°C ;         .;         .;         .;         .;       0.5;       1.7;       5.5;       5.1;       0.2;         .;         .;         .;      13.0;
Tx >=  25°C ;         .;         .;         .;       0.6;       6.1;       8.4;      16.6;      16.2;       4.7;       0.8;         .;         .;      53.3;
Tx <=   0°C ;       2.4;       0.9;         .;         .;         .;         .;         .;         .;         .;         .;       0.2;       1.1;       4.7;
Tn <=   0°C ;      13.7;      13.5;       7.3;       3.1;       0.1;         .;         .;         .;         .;       1.4;       7.1;      10.5;      56.8;
Tn <=  -5°C ;       3.8;       3.9;       0.2;         .;         .;         .;         .;         .;         .;         .;       0.9;       2.0;      10.8;
Tn <= -10°C ;       1.1;       0.3;         .;         .;         .;         .;         .;         .;         .;         .;         .;       0.1;       1.4;
(Tn=Température minimale. Tx=Température maximale);


Précipitations : Hauteur quotidienne maximale (mm);
(Records établis sur la période du 01-07-1962 au 31-01-2014);
            ;      52.5;      32.1;      30.9;      25.7;        54;      46.5;        41;        75;      34.5;        35;      33.9;        31;        75;
Date        ;   11-1993;   14-1990;   13-1980;   07-1998;   28-1992;   17-1986;   06-1999;   13-2006;   21-1967;   24-1966;   09-1966;   24-2013;      2006;


Précipitations : Hauteur moyenne mensuelle (mm);
            ;      62.9;      51.6;      59.2;      53.8;      65.1;      58.8;      68.2;        63;      55.8;      64.7;      57.5;      70.3;     730.9;


Nombre moyen de jours avec;
Rr >=  1 mm ;      11.9;      10.8;      12.1;      10.3;      10.3;       9.6;       8.8;       8.9;       9.8;      10.5;      11.2;      12.0;     126.2;
Rr >=  5 mm ;       4.2;       3.5;       4.2;       3.8;       4.6;       4.0;       4.2;       3.7;       3.8;       4.2;       4.0;       5.0;      49.2;
Rr >= 10 mm ;       1.6;       1.1;       0.9;       1.2;       1.7;       1.4;       2.2;       1.8;       1.5;       1.9;       1.4;       2.0;      18.5;
Rr : Hauteur quotidienne de précipitations;


Degrés Jours Unifiés (Moyenne en °C);
Statistiques établies sur la période 1981-2002;
            ;     444.9;     392.2;     322.2;     242.6;     125.1;      63.8;      18.4;      22.7;      81.9;     193.9;     334.3;     416.9;    2658.9;


Rayonnement global (Moyenne en J/cm²);
Données non disponibles;



Durée d'insolation (Moyenne en heures);
Données non disponibles;



Nombre moyen de jours avec fraction d'insolation;
Données non disponibles;



Evapotranspiration Potentielle (ETP Penman moyenne en mm);
Données non disponibles;



Rafale maximale de vent (m/s);
Données non disponibles;



Vitesse du vent moyenné sur 10 mn (Moyenne en m/s);
Données non disponibles;



Nombre moyen de jours avec rafales;
Données non disponibles;



Nombre moyen de jours avec brouillard / orage / grêle / neige;
Données non disponibles;


- : donnée manquante;  . : donnée égale à 0;


Ces statistiques sont établies sur la période 1981-2010 sauf pour les paramètres suivants :  température (1981-2002).;

