FICHE CLIMATOLOGIQUE;
;
Statistiques  1981-2010  et  records;
BLANDAINVILLE (28)      Indicatif : 28041001, alt : 163m, lat : 48°18'12"N, lon : 01°16'12"E;
Edité le : 06/04/2020 dans l'état de la base;


            ;     Janv.;     Févr.;      Mars;     Avril;       Mai;      Juin;     Juil.;      Août;     Sept.;      Oct.;      Nov.;      Déc.;     Année;


La température la plus élevée (°C);
(Records établis sur la période du 01-07-1995 au 02-04-2020);
            ;      16.9;      19.9;      22.9;      26.7;      30.1;      36.8;      41.3;      39.8;      33.7;      28.5;      20.5;      16.4;      41.3;
Date        ;   27-2003;   27-2019;   30-2017;   30-2005;   27-2005;   27-2011;   25-2019;   05-2003;   05-2013;   01-2011;   01-2014;   07-2000;      2019;


Température maximale (Moyenne en °C);
Statistiques établies sur la période 1995-2010;
            ;       6.1;       7.9;      11.5;      15.1;      18.7;      22.7;        25;      25.4;      21.4;      16.3;      10.1;       6.2;      15.6;


Température moyenne (Moyenne en °C);
Statistiques établies sur la période 1995-2010;
            ;       3.6;       4.7;       7.2;       9.8;      13.4;      16.6;      18.6;        19;      15.5;      11.9;         7;       3.7;      10.9;


Température minimale (Moyenne en °C);
Statistiques établies sur la période 1995-2010;
            ;       1.1;       1.5;       2.9;       4.4;         8;      10.6;      12.3;      12.5;       9.6;       7.5;         4;       1.3;       6.3;


La température la plus basse (°C);
(Records établis sur la période du 01-07-1995 au 02-04-2020);
            ;     -18.1;     -17.4;      -9.5;      -4.3;      -0.9;         1;       4.9;       4.3;       0.9;      -5.1;     -10.1;     -11.5;     -18.1;
Date        ;   08-2010;   07-2012;   01-2005;   11-2003;   06-2019;   01-2006;   03-1996;   26-2018;   30-2002;   30-1997;   30-2010;   26-2010;      2010;


Nombre moyen de jours avec;
Statistiques établies sur la période 1995-2010;
Tx >=  30°C ;         .;         .;         .;         .;       0.1;       1.6;       4.8;       4.7;       0.8;         .;         .;         .;      12.0;
Tx >=  25°C ;         .;         .;         .;       0.4;       2.1;       8.1;      14.7;      14.4;       4.8;       0.6;         .;         .;      45.2;
Tx <=   0°C ;       3.1;       1.3;       0.1;         .;         .;         .;         .;         .;         .;         .;       0.1;       2.4;       7.1;
Tn <=   0°C ;      12.9;      11.6;       8.3;       3.3;       0.2;         .;         .;         .;         .;       1.6;       4.8;      13.1;      55.8;
Tn <=  -5°C ;       2.8;       0.9;       0.2;         .;         .;         .;         .;         .;         .;       0.1;       0.4;       1.6;       5.9;
Tn <= -10°C ;       0.5;       0.1;         .;         .;         .;         .;         .;         .;         .;         .;       0.1;       0.1;       0.8;
(Tn=Température minimale. Tx=Température maximale);


Précipitations : Hauteur quotidienne maximale (mm);
(Records établis sur la période du 01-07-1995 au 02-04-2020);
            ;      23.8;      28.2;      20.3;      33.2;        40;        28;        45;      37.6;      35.6;      34.8;      32.8;        32;        45;
Date        ;   18-1998;   25-1997;   10-2018;   14-1999;   27-2008;   25-2006;   06-2001;   08-1999;   13-2015;   28-1998;   20-2015;   15-2011;      2001;


Précipitations : Hauteur moyenne mensuelle (mm);
Statistiques établies sur la période 1995-2010;
            ;      54.6;      46.1;      46.7;      44.4;      51.2;      47.2;      55.7;      43.5;      40.5;      65.2;        61;      66.4;     622.5;


Nombre moyen de jours avec;
Statistiques établies sur la période 1995-2010;
Rr >=  1 mm ;      10.0;       9.2;       9.3;       8.3;       9.1;       7.9;       7.9;       7.1;       7.6;      10.1;      12.0;      11.8;     110.2;
Rr >=  5 mm ;       3.5;       2.9;       3.3;       3.5;       3.0;       3.3;       3.9;       2.8;       2.8;       4.4;       4.0;       4.9;      42.3;
Rr >= 10 mm ;       1.3;       1.0;       1.2;       0.9;       1.6;       1.4;       1.7;       1.3;       1.1;       2.1;       1.4;       1.8;      16.7;
Rr : Hauteur quotidienne de précipitations;


Degrés Jours Unifiés (Moyenne en °C);
Statistiques établies sur la période 1995-2010;
            ;     446.5;     375.8;     335.3;     247.2;     146.2;      60.6;      27.3;        22;      84.9;     189.6;     329.1;       442;    2706.5;


Rayonnement global (Moyenne en J/cm²);
Données non disponibles;



Durée d'insolation (Moyenne en heures);
Données non disponibles;



Nombre moyen de jours avec fraction d'insolation;
Données non disponibles;



Evapotranspiration Potentielle (ETP Penman moyenne en mm);
Données non disponibles;



Rafale maximale de vent (m/s);
Données non disponibles;



Vitesse du vent moyenné sur 10 mn (Moyenne en m/s);
Données non disponibles;



Nombre moyen de jours avec rafales;
Données non disponibles;



Nombre moyen de jours avec brouillard / orage / grêle / neige;
Données non disponibles;


- : donnée manquante;  . : donnée égale à 0;


Ces statistiques sont établies sur la période 1981-2010 sauf pour les paramètres suivants :  précipitations (1995-2010), température (1995-2010).;

