FICHE CLIMATOLOGIQUE;
;
Statistiques  1981-2010  et  records;
VILLENAUXE-SPC (77)      Indicatif : 77507001, alt : 60m, lat : 48°25'48"N, lon : 03°18'54"E;
Edité le : 06/04/2020 dans l'état de la base;


            ;     Janv.;     Févr.;      Mars;     Avril;       Mai;      Juin;     Juil.;      Août;     Sept.;      Oct.;      Nov.;      Déc.;     Année;


La température la plus élevée (°C);
(Records établis sur la période du 01-04-1993 au 31-12-2010);
            ;      16.1;      18.5;        24;      29.4;        34;      36.4;      39.4;      40.4;      33.1;      29.9;      21.1;      17.8;      40.4;
Date        ;   05-1999;   24-2008;   16-2005;   26-2007;   27-2005;   20-2005;   19-2006;   12-2003;   08-2009;   07-2009;   11-1995;   07-2000;      2003;


Température maximale (Moyenne en °C);
Statistiques établies sur la période 1993-2010;
            ;       6.9;         9;      12.7;      16.4;      20.7;      24.3;      26.8;      26.4;      21.9;      17.1;      10.5;       6.8;      16.7;


Température moyenne (Moyenne en °C);
Statistiques établies sur la période 1993-2010;
            ;       4.1;       5.3;       7.8;      10.7;      14.8;      17.9;      20.1;      19.7;      15.9;      12.4;       7.3;       4.3;      11.7;


Température minimale (Moyenne en °C);
Statistiques établies sur la période 1993-2010;
            ;       1.3;       1.6;         3;         5;         9;      11.5;      13.4;      13.1;        10;       7.8;       4.1;       1.7;       6.8;


La température la plus basse (°C);
(Records établis sur la période du 01-04-1993 au 31-12-2010);
            ;       -12;     -13.9;     -11.8;      -4.5;      -0.8;         2;       6.1;       2.4;       0.8;      -4.5;       -10;     -14.8;     -14.8;
Date        ;   07-2009;   22-1996;   01-2005;   08-2003;   05-1996;   01-2006;   04-1998;   29-1993;   30-1995;   19-2009;   30-2010;   31-1996;      1996;


Nombre moyen de jours avec;
Statistiques établies sur la période 1993-2010;
Tx >=  30°C ;         .;         .;         .;         .;       0.6;       3.1;       7.5;       6.4;       1.3;         .;         .;         .;      18.8;
Tx >=  25°C ;         .;         .;         .;       1.4;       5.3;      13.2;      20.4;      18.2;       5.8;       1.0;         .;         .;      65.3;
Tx <=   0°C ;       2.0;       0.6;         .;         .;         .;         .;         .;         .;         .;         .;       0.5;       1.9;       5.0;
Tn <=   0°C ;      11.4;      11.3;       8.9;       3.3;       0.2;         .;         .;         .;         .;       2.1;       5.6;      12.1;      54.9;
Tn <=  -5°C ;       2.9;       1.6;       0.5;         .;         .;         .;         .;         .;         .;         .;       0.9;       1.9;       7.9;
Tn <= -10°C ;       0.4;       0.1;       0.1;         .;         .;         .;         .;         .;         .;         .;       0.1;       0.2;       0.8;
(Tn=Température minimale. Tx=Température maximale);


Précipitations : Hauteur quotidienne maximale (mm);
(Records établis sur la période du 01-04-1993 au 31-12-2010);
            ;        26;        40;      18.4;      45.6;      57.6;      31.8;      36.6;      44.2;      39.4;      59.8;      41.8;      29.2;      59.8;
Date        ;   13-2004;   01-2008;   01-2007;   14-1999;   26-2010;   04-2003;   22-1995;   15-2010;   24-1993;   28-1998;   06-1997;   29-2001;      1998;


Précipitations : Hauteur moyenne mensuelle (mm);
Statistiques établies sur la période 1993-2010;
            ;      51.7;      54.1;      50.5;      56.7;      62.4;      43.4;      56.8;      59.5;      61.6;      66.4;      59.1;      65.3;     687.5;


Nombre moyen de jours avec;
Statistiques établies sur la période 1993-2010;
Rr >=  1 mm ;      11.1;      11.3;       9.9;       9.7;      10.2;       7.5;       8.7;       7.9;       8.8;       9.4;      10.4;      12.3;     117.3;
Rr >=  5 mm ;       3.6;       3.3;       3.8;       4.2;       3.9;       3.2;       3.7;       3.6;       4.0;       4.6;       3.9;       5.1;      46.8;
Rr >= 10 mm ;       0.9;       1.1;       0.8;       1.1;       1.8;       1.1;       1.6;       1.7;       2.0;       1.9;       1.6;       1.6;      17.2;
Rr : Hauteur quotidienne de précipitations;


Degrés Jours Unifiés (Moyenne en °C);
Statistiques établies sur la période 1993-2010;
            ;     430.6;     359.5;     315.3;     219.9;       106;      40.4;        13;      15.5;      75.7;     176.9;     320.4;     425.3;    2498.5;


Rayonnement global (Moyenne en J/cm²);
Données non disponibles;



Durée d'insolation (Moyenne en heures);
Données non disponibles;



Nombre moyen de jours avec fraction d'insolation;
Données non disponibles;



Evapotranspiration Potentielle (ETP Penman moyenne en mm);
Données non disponibles;



Rafale maximale de vent (m/s);
Données non disponibles;



Vitesse du vent moyenné sur 10 mn (Moyenne en m/s);
Données non disponibles;



Nombre moyen de jours avec rafales;
Données non disponibles;



Nombre moyen de jours avec brouillard / orage / grêle / neige;
Données non disponibles;


- : donnée manquante;  . : donnée égale à 0;


Ces statistiques sont établies sur la période 1981-2010 sauf pour les paramètres suivants :  précipitations (1993-2010), température (1993-2010).;

